पर्खी बसेछु त्यही ठाउँमा जहाँ तिमी आउने भन्थ्यौ
थोपा पानीहरूको माझमा रुझीभिजी अझै म कुर्छु
तिमी आऊ या नआऊ, म सातै दिन त्यही बाटो हेरीबस्नेछु सम्झँदै तिम्रो त्यो मुस्कानलाई

मायामा परेछु म, आज यो के भयो?
छाया तिम्रै चाहन्छु जीवनमा मेरो
मायामा परेछु म, आज यो के भयो?
छाया तिम्रै चाहन्छु जीवनमा मेरो

केही अघिको कुरा यो, भेटेको उसलाई पोखरामा
आँखा मेरो अडिए उसको ती गुलाबी गालामा
हिँडेँ म नि पछि-पछि, भुलेँ अब सब कुरा
मनमा मेरो खेल्छन् कुरा, तर भन्न सक्छु र?

सुस्तरी-सुस्तरी हिँडेँ म उनको तिर
उनले हेरिन् मलाई गहिरा ती आँखाले, बढ्यो मेरो ढुकढुकी
ऊ पनि आइन् मतिर, सोधिन् मलाई यदि कहीँबाट चिनेको छु कि न
रोकिन मैले आफूलाई, भनेँ, "साह्रै नै राम्रो तिम्रो मुहार देखेर
लाग्यो मीठो होला तिम्रो आवाज
मेरो साँझ बनाइदेऊ अब एक कप कफीको साथ
पुगेर त्यो कुनाको क्याफेमा गरुम् हामी कुराकानी खुलेर
भुलेर सबै कामसाम, बस्छु तिमीलाई नै सुनेर"

"हैन, हैन, ढिलो भइराछ आज, बरु अरू दिन आउँछु
गाउँला हामी सँगै-सँगै गीत पनि," भनी
आज नि छैन कोही, खोइ? आशामा बित्न थाल्यो जिन्दगी
राखेछु तिम्लाई मुटुमाझमा
आजको साँझ तिम्रो यादमा फेरि
नशालु तिम्रा ती आँखालाई सम्झिँदै
बस्नेछु सम्झँदै तिम्रो त्यो मुहारलाई

मायामा परेछु म, आज यो के भयो?
छाया तिम्रै चाहन्छु जीवनमा मेरो
मायामा परेछु म, आज यो के भयो?
छाया तिम्रै चाहन्छु जीवनमा मेरो